Supplementary figures - VST and fixed theta comparisons
…
Saket Choudhary

2021-07-06

workflowr::wflow_git_commit(all = TRUE)

datasets <- readr::read_csv(here::here("data", "datasets.csv"), col_types = readr::cols())

datasets$key_cleaned <- clean_keys(datasets$key)
dataset_keys <- datasets$key
datasets$datatype <- factor(datasets$datatype, levels = c("technical-control", "cell line", "heterogeneous"))
datasets <- datasets %>% arrange(datatype)
datasets

# A tibble: 58 x 7
   key      sample_name   technology  tissue datatype raw_data      key_cleaned 
   <chr>    <chr>         <chr>       <chr>  <fct>    <chr>         <chr>       
 1 Technic… TechCtrl1 (C… ChromiumV1  TechC… technic… https://data… TechnicalCo…
 2 Technic… TechCtrl2 (C… ChromiumV1  TechC… technic… https://data… TechnicalCo…
 3 Technic… TechCtrl (in… inDrops     TechC… technic… https://data… TechnicalCo…
 4 3T3__Ch… 3T3 (Chromiu… ChromiumV3  3T3    cell li… https://data… 3T3__Chromi…
 5 Ding-Mo… 3T3-r1 (CEL-… CEL-seq2    3T3    cell li… https://www.… Ding-MouseM…
 6 Ding-Mo… 3T3-r1 (Chro… ChromiumV2  3T3    cell li… https://www.… Ding-MouseM…
 7 Ding-Mo… 3T3-r1 (Drop… Drop-seq    3T3    cell li… https://www.… Ding-MouseM…
 8 Ding-Mo… 3T3-r1 (inDr… inDrops     3T3    cell li… https://www.… Ding-MouseM…
 9 Ding-Mo… 3T3-r1 (sci-… sci-RNA-seq 3T3    cell li… https://www.… Ding-MouseM…
10 Ding-Mo… 3T3-r2 (CEL-… CEL-seq2    3T3    cell li… https://www.… Ding-MouseM…
# … with 48 more rows
…
